<svg id="Layer_1" data-name="Layer 1" xmlns="http://www.w3.org/2000/svg" viewBox="0 0 24 24">
  <title>Back Chevron</title>
  <path d="M7.5,12l7.56-7.5L16.5,5.93,10.38,12l6.12,6.07L15.06,19.5Z"/>
</svg>