<?xml version="1.0" encoding="utf-8"?>
<!-- Generator: Adobe Illustrator 16.0.0, SVG Export Plug-In . SVG Version: 6.00 Build 0)  -->
<!DOCTYPE svg PUBLIC "-//W3C//DTD SVG 1.1//EN" "http://www.w3.org/Graphics/SVG/1.1/DTD/svg11.dtd">
<svg version="1.1" id="Слой_1" xmlns="http://www.w3.org/2000/svg" xmlns:xlink="http://www.w3.org/1999/xlink" x="0px" y="0px"
	 width="28px" height="28px" viewBox="0 0 28 28" enable-background="new 0 0 28 28" xml:space="preserve">
<path d="M23.898,4.101C21.256,1.456,17.74,0,14,0S6.745,1.456,4.101,4.101C1.456,6.745,0,10.26,0,14s1.456,7.256,4.101,9.898
	C6.745,26.544,10.26,28,14,28s7.256-1.456,9.898-4.102C26.544,21.256,28,17.74,28,14S26.544,6.745,23.898,4.101z M20.677,3.595
	c0.736,0.475,1.429,1.031,2.063,1.666c0.646,0.646,1.21,1.35,1.689,2.101c-1.279,0.074-2.563,0.431-3.488,0.823
	C20.727,7.84,20.45,7.531,20.12,7.273c-0.083-0.065-0.169-0.125-0.257-0.182C20.257,6.15,20.602,4.856,20.677,3.595z M19.814,9.812
	c0.062,0.496-0.074,0.985-0.381,1.378c-0.636,0.813-1.813,0.958-2.623,0.323c-0.396-0.307-0.646-0.749-0.705-1.245
	c-0.063-0.496,0.074-0.985,0.381-1.379c0.369-0.472,0.92-0.718,1.476-0.718c0.402,0,0.808,0.129,1.147,0.395
	C19.504,8.874,19.754,9.316,19.814,9.812z M14,1.641c1.766,0,3.475,0.368,5.039,1.067c0.092,1.28-0.291,2.858-0.725,3.842
	c-0.408-0.041-0.82-0.01-1.217,0.09c-0.658-0.976-1.88-2.133-2.987-2.988c-0.652-0.504-1.646-1.201-2.756-1.729
	C12.214,1.737,13.1,1.641,14,1.641z M1.641,14c0-3.301,1.286-6.405,3.62-8.739c1.023-1.024,2.195-1.846,3.466-2.446
	c1.154,0.096,2.738,0.866,4.381,2.136c1.214,0.938,2.082,1.858,2.526,2.461c-0.157,0.14-0.307,0.296-0.44,0.469
	c-0.414,0.53-0.66,1.153-0.727,1.807c-1.649,0.136-3.853,0.75-5.522,1.386c-1.987,0.756-4.74,2.075-7.239,4.21
	C1.663,14.859,1.641,14.432,1.641,14z M5.261,22.739c-1.565-1.565-2.658-3.476-3.209-5.56c2.495-2.371,5.422-3.792,7.478-4.575
	c2.335-0.889,4.16-1.211,5.162-1.287c0.226,0.582,0.604,1.094,1.109,1.488c0.281,0.22,0.586,0.39,0.903,0.511
	c-0.163,2.296-1.601,8.078-5.779,12.658C8.8,25.434,6.852,24.33,5.261,22.739z M22.739,22.739c-2.335,2.335-5.438,3.62-8.739,3.62
	c-0.399,0-0.795-0.021-1.187-0.058c2.146-2.588,3.448-5.346,4.186-7.313c0.854-2.281,1.237-4.205,1.335-5.46
	c0.846-0.091,1.656-0.485,2.254-1.162c0.604,0.443,1.526,1.313,2.469,2.532c1.264,1.635,2.031,3.211,2.135,4.362
	C24.59,20.537,23.766,21.713,22.739,22.739z M24.354,13.896c-0.855-1.108-2.016-2.332-2.992-2.99
	c0.096-0.374,0.129-0.764,0.096-1.158c0.979-0.44,2.568-0.835,3.854-0.745c0.688,1.554,1.049,3.248,1.049,4.997
	c0,0.898-0.096,1.781-0.281,2.641C25.551,15.535,24.855,14.545,24.354,13.896z"/>
</svg>
