<?xml version="1.0" encoding="utf-8"?>
<!-- Generator: Adobe Illustrator 16.0.0, SVG Export Plug-In . SVG Version: 6.00 Build 0)  -->
<!DOCTYPE svg PUBLIC "-//W3C//DTD SVG 1.1//EN" "http://www.w3.org/Graphics/SVG/1.1/DTD/svg11.dtd">
<svg version="1.1" id="Слой_1" xmlns="http://www.w3.org/2000/svg" xmlns:xlink="http://www.w3.org/1999/xlink" x="0px" y="0px"
	 width="24px" height="24px" viewBox="0 0 24 24" enable-background="new 0 0 24 24" xml:space="preserve">
<path fill="#1E201D" d="M6.408,14.271c0,0.375-0.308,0.672-0.684,0.672c-0.375,0-0.673-0.297-0.673-0.672V5.733
	c0-0.375,0.298-0.683,0.673-0.683h8.538c0.375,0,0.672,0.308,0.672,0.683c0,0.376-0.297,0.684-0.672,0.684H7.371l11.376,11.375
	c0.27,0.271,0.27,0.694,0,0.964c-0.261,0.261-0.694,0.261-0.954,0L6.408,7.369V14.271z"/>
</svg>
