<?xml version="1.0" encoding="utf-8"?>
<!-- Generator: Adobe Illustrator 16.0.0, SVG Export Plug-In . SVG Version: 6.00 Build 0)  -->
<!DOCTYPE svg PUBLIC "-//W3C//DTD SVG 1.1//EN" "http://www.w3.org/Graphics/SVG/1.1/DTD/svg11.dtd">
<svg version="1.1" id="Слой_1" xmlns="http://www.w3.org/2000/svg" xmlns:xlink="http://www.w3.org/1999/xlink" x="0px" y="0px"
	 width="28px" height="28px" viewBox="0 0 28 28" enable-background="new 0 0 28 28" xml:space="preserve">
<path d="M13.954,15.633c4.138,0,7.494-3.357,7.494-7.495s-3.356-7.471-7.494-7.471c-4.138,0-7.494,3.356-7.494,7.471
	C6.46,12.253,9.816,15.633,13.954,15.633z M13.954,2.621c3.034,0,5.517,2.483,5.517,5.518c0,3.034-2.482,5.517-5.517,5.517
	c-3.035,0-5.518-2.483-5.518-5.518S10.919,2.621,13.954,2.621z M0.988,27.334h26.023c0.552,0,0.988-0.438,0.988-0.989
	c0-5.173-4.207-9.402-9.402-9.402H9.402C4.23,16.942,0,21.149,0,26.345C0,26.896,0.437,27.334,0.988,27.334z M9.402,18.92h9.195
	c3.77,0,6.873,2.805,7.356,6.437H2.046C2.529,21.747,5.632,18.92,9.402,18.92z"/>
</svg>
